{
"bones": [
	{ "name": "root" },
	{ "name": "backbone", "parent": "root", "length": 95.44, "x": 32.22, "y": 40.28, "rotation": -159.69 },
	{ "name": "left-arm", "parent": "backbone", "length": 26.27, "x": -19.81, "y": 46.11, "rotation": 108.25 },
	{ "name": "left-leg", "parent": "backbone", "length": 39.32, "x": 25.27, "y": 71.27, "rotation": 73.34 },
	{ "name": "right-arm", "parent": "backbone", "length": 39.84, "x": -7.05, "y": 43.88, "rotation": 92.72 },
	{ "name": "right-leg", "parent": "backbone", "length": 67.51, "x": 64.38, "y": 45.13, "rotation": 80.61 },
	{ "name": "skull", "parent": "backbone", "length": 122.11, "x": -12.87, "y": -23.06, "rotation": -167.14 },
	{ "name": "tailbone1", "parent": "backbone", "length": 67.06, "x": 113.34, "y": -12.93, "rotation": -26.19 },
	{ "name": "jaw", "parent": "skull", "length": 84.86, "x": 0.57, "y": -28.79, "rotation": -45.16 },
	{ "name": "left-forearm", "parent": "left-arm", "length": 19.25, "x": 26.27, "rotation": 49.36 },
	{ "name": "left-tibia", "parent": "left-leg", "length": 38.35, "x": 39.33, "y": -0.16, "rotation": -53.2 },
	{ "name": "right-forearm", "parent": "right-arm", "length": 21.33, "x": 41.24, "y": 1.95, "rotation": 57.91 },
	{ "name": "right-tibia", "parent": "right-leg", "length": 44.88, "x": 67.97, "y": -0.39, "rotation": -57.58 },
	{ "name": "tailbone2", "parent": "tailbone1", "length": 49.3, "x": 66.92, "y": 6.88, "rotation": 42.68 },
	{ "name": "left-foot", "parent": "left-tibia", "length": 44.46, "x": 38.35, "y": 0.09, "rotation": 138.59 },
	{ "name": "right-claws", "parent": "right-forearm", "length": 17.53, "x": 20.51, "y": 0.09, "rotation": -26.2 },
	{ "name": "right-foot", "parent": "right-tibia", "length": 50.2, "x": 44.88, "y": -0.18, "rotation": 138.59 }
],
"slots": [
	{ "name": "full", "bone": "root" },
	{ "name": "leg-left3", "bone": "left-foot", "attachment": "leg-left3" },
	{ "name": "leg-left2", "bone": "left-tibia", "attachment": "leg-left2" },
	{ "name": "leg-left1", "bone": "left-leg", "attachment": "leg-left1" },
	{ "name": "arm-left1", "bone": "left-arm", "attachment": "arm-left1" },
	{ "name": "arm-left2", "bone": "left-forearm", "attachment": "arm-left2" },
	{ "name": "body", "bone": "backbone", "attachment": "body" },
	{ "name": "leg-right2", "bone": "right-tibia", "attachment": "leg-right2" },
	{ "name": "leg-right3", "bone": "right-foot", "attachment": "leg-right3" },
	{ "name": "leg-right1", "bone": "right-leg", "attachment": "leg-right1" },
	{ "name": "tail1", "bone": "tailbone1", "attachment": "tail1" },
	{ "name": "tail2", "bone": "tailbone2", "attachment": "tail2" },
	{ "name": "arm-right1", "bone": "right-arm", "attachment": "arm-right1" },
	{ "name": "head-bottom", "bone": "jaw", "attachment": "head-bottom" },
	{ "name": "head-top", "bone": "skull", "attachment": "head-top" },
	{ "name": "arm-right2", "bone": "right-forearm", "attachment": "arm-right2" },
	{ "name": "arm-right-fingers", "bone": "right-claws", "attachment": "arm-right-fingers" }
],
"skins": {
	"default": {
		"arm-left1": {
			"arm-left1": { "x": -55.98, "y": -59.89, "rotation": 51.44, "width": 512, "height": 512 }
		},
		"arm-left2": {
			"arm-left2": { "x": -98.47, "y": 23.2, "rotation": 2.07, "width": 512, "height": 512 }
		},
		"arm-right-fingers": {
			"arm-right-fingers": { "x": -114.59, "y": -21.8, "rotation": 35.25, "width": 512, "height": 512 }
		},
		"arm-right1": {
			"arm-right1": { "x": -34.5, "y": -60, "rotation": 66.96, "width": 512, "height": 512 }
		},
		"arm-right2": {
			"arm-right2": { "x": -92.75, "y": 31.55, "rotation": 9.05, "width": 512, "height": 512 }
		},
		"body": {
			"body": { "x": 54.91, "y": 12.75, "rotation": 159.69, "width": 512, "height": 512 }
		},
		"head-bottom": {
			"head-bottom": { "x": -58.27, "y": -46.21, "rotation": 12, "width": 512, "height": 512 }
		},
		"head-top": {
			"head-top": { "x": -73.65, "y": -19.14, "rotation": -33.16, "width": 512, "height": 512 }
		},
		"leg-left1": {
			"leg-left1": { "x": -49.66, "y": -44.79, "rotation": 86.34, "width": 512, "height": 512 }
		},
		"leg-left2": {
			"leg-left2": { "x": -16.63, "y": -97.12, "rotation": 139.55, "width": 512, "height": 512 }
		},
		"leg-left3": {
			"leg-left3": { "x": -23.03, "y": 109.29, "rotation": 0.96, "width": 512, "height": 512 }
		},
		"leg-right1": {
			"leg-right1": { "x": -34.31, "y": 4.3, "rotation": 79.08, "width": 512, "height": 512 }
		},
		"leg-right2": {
			"leg-right2": { "x": -57.95, "y": -84.06, "rotation": 136.66, "width": 512, "height": 512 }
		},
		"leg-right3": {
			"leg-right3": { "x": 22.44, "y": 131.75, "rotation": -1.92, "width": 512, "height": 512 }
		},
		"tail1": {
			"tail1": { "x": -66.93, "y": -3.95, "rotation": -174.1, "width": 512, "height": 512 }
		},
		"tail2": {
			"tail2": { "x": -101.99, "y": 81.97, "rotation": 143.2, "width": 512, "height": 512 }
		}
	}
},
"animations": {
	"bump": {
		"bones": {
			"backbone": {
				"rotate": [
					{ "time": 0, "angle": 0 },
					{ "time": 0.1666, "angle": -16.69 },
					{ "time": 0.8333, "angle": -5.64 }
				],
				"translate": [
					{ "time": 0, "x": 0, "y": 0 },
					{ "time": 0.1666, "x": -37.99, "y": -27.59 },
					{ "time": 0.5333, "x": -17.51, "y": -13.89 },
					{ "time": 0.8333, "x": -0.76, "y": 7.36 },
					{ "time": 1.1666, "x": -0.76, "y": -7.36 }
				]
			},
			"left-forearm": {
				"rotate": [
					{ "time": 0, "angle": 48.07 },
					{ "time": 1.1666, "angle": 7.19 }
				]
			},
			"right-forearm": {
				"rotate": [
					{ "time": 0, "angle": 11.5 },
					{ "time": 0.1666, "angle": 56.69 },
					{ "time": 0.8, "angle": 4.83 }
				]
			},
			"right-arm": {
				"rotate": [
					{ "time": 0, "angle": -26.71 },
					{ "time": 0.1666, "angle": -18.55 },
					{ "time": 0.5333, "angle": -0.63 },
					{ "time": 0.8333, "angle": 42.17 }
				],
				"translate": [
					{ "time": 0, "x": 2.48, "y": -5.48 },
					{ "time": 1.1666, "x": 1.15, "y": -3.25 }
				]
			},
			"left-leg": {
				"rotate": [
					{ "time": 0, "angle": -19.26 },
					{ "time": 0.1, "angle": 25.66 },
					{ "time": 0.7666, "angle": 59.13 },
					{ "time": 1.1, "angle": 102.09 }
				],
				"translate": [
					{ "time": 0, "x": 30.7, "y": -12.35 },
					{ "time": 1.1666, "x": 7.56, "y": -6.29 }
				]
			},
			"left-tibia": {
				"rotate": [
					{ "time": 0, "angle": -4.71 },
					{ "time": 0.1666, "angle": 32.4 },
					{ "time": 0.8333, "angle": -36.32 },
					{ "time": 1.1666, "angle": -66.01 }
				]
			},
			"right-tibia": {
				"rotate": [
					{ "time": 0, "angle": -15.37 },
					{ "time": 0.1666, "angle": -63.23 },
					{ "time": 0.5, "angle": -15.93 },
					{ "time": 0.8333, "angle": 6.19 },
					{ "time": 1.1666, "angle": 31.3 }
				]
			},
			"left-arm": {
				"rotate": [
					{ "time": 0, "angle": 35.64 },
					{ "time": 1.1666, "angle": -19.81 }
				],
				"translate": [
					{ "time": 0, "x": -2.82, "y": -7.61 }
				]
			},
			"right-leg": {
				"rotate": [
					{ "time": 0, "angle": 31.54 },
					{ "time": 0.1666, "angle": 33.77 },
					{ "time": 0.5, "angle": -9.43 },
					{ "time": 0.8333, "angle": -59.54 },
					{ "time": 1.1666, "angle": -67.92 }
				],
				"translate": [
					{ "time": 0, "x": -12.8, "y": 26.33, "curve": "stepped" },
					{ "time": 0.8333, "x": -12.8, "y": 26.33 },
					{ "time": 1.1666, "x": -16.77, "y": 11.2 }
				]
			},
			"right-claws": {
				"rotate": [
					{ "time": 0, "angle": -10.59 },
					{ "time": 0.1666, "angle": -50.84 }
				]
			},
			"right-foot": {
				"rotate": [
					{ "time": 0, "angle": -48.45 },
					{ "time": 0.1666, "angle": -10.26 },
					{ "time": 0.5, "angle": -23.88 },
					{ "time": 0.8333, "angle": -91.52 }
				]
			},
			"left-foot": {
				"rotate": [
					{ "time": 0, "angle": -42.16 },
					{ "time": 0.1666, "angle": -93.47 },
					{ "time": 0.8333, "angle": -78.67 },
					{ "time": 1.1666, "angle": -28.29 }
				],
				"translate": [
					{ "time": 0.1666, "x": 0, "y": 0 }
				]
			},
			"tailbone2": {
				"rotate": [
					{ "time": 0, "angle": -9.69 },
					{ "time": 0.1666, "angle": -30.79 },
					{ "time": 0.8333, "angle": -14.48 }
				]
			},
			"jaw": {
				"rotate": [
					{ "time": 0, "angle": 27.56 },
					{ "time": 0.1666, "angle": 46.96 },
					{ "time": 0.5333, "angle": 1.75 },
					{ "time": 0.8333, "angle": 0.2 },
					{ "time": 0.8666, "angle": 42.25 }
				]
			},
			"skull": {
				"rotate": [
					{ "time": 0, "angle": 339.22 },
					{ "time": 0.2, "angle": 297.15 },
					{ "time": 0.5333, "angle": 318.65 },
					{ "time": 0.8666, "angle": 11.24 },
					{ "time": 1.2, "angle": 333.11 }
				],
				"translate": [
					{ "time": 0, "x": -15.17, "y": 13.72 },
					{ "time": 0.2, "x": -16.74, "y": 31.71 },
					{ "time": 0.5333, "x": -26.71, "y": 33.42 }
				]
			},
			"tailbone1": {
				"rotate": [
					{ "time": 0.1666, "angle": 16.11 },
					{ "time": 0.8333, "angle": -13.99 }
				],
				"translate": [
					{ "time": 0.1666, "x": 0.92, "y": 0.91 }
				]
			}
		}
	},
	"climb": {
		"bones": {
			"jaw": {
				"rotate": [
					{ "time": 0, "angle": 27.06 }
				]
			},
			"right-leg": {
				"rotate": [
					{ "time": 0, "angle": -65.3 }
				],
				"translate": [
					{ "time": 0, "x": 9.48, "y": -3.51 }
				]
			},
			"right-foot": {
				"rotate": [
					{ "time": 0, "angle": -81.4 }
				]
			},
			"right-tibia": {
				"rotate": [
					{ "time": 0, "angle": 13.89 }
				]
			},
			"left-leg": {
				"rotate": [
					{ "time": 0, "angle": 70.36 }
				],
				"translate": [
					{ "time": 0, "x": -6.42, "y": -9.39 }
				]
			},
			"left-tibia": {
				"rotate": [
					{ "time": 0, "angle": -84.98 }
				]
			},
			"left-foot": {
				"rotate": [
					{ "time": 0, "angle": -28.26 }
				]
			},
			"backbone": {
				"rotate": [
					{ "time": 0, "angle": 25.35 }
				],
				"translate": [
					{ "time": 0, "x": -34.04, "y": 0 }
				]
			},
			"skull": {
				"rotate": [
					{ "time": 0, "angle": 329.72 }
				],
				"translate": [
					{ "time": 0, "x": -12.92, "y": 11.05 }
				]
			},
			"tailbone2": {
				"rotate": [
					{ "time": 0, "angle": -30.56 }
				]
			},
			"tailbone1": {
				"rotate": [
					{ "time": 0, "angle": 11.55 }
				]
			},
			"right-arm": {
				"rotate": [
					{ "time": 0, "angle": 40.69 }
				],
				"translate": [
					{ "time": 0, "x": 4.72, "y": -1.75 }
				]
			},
			"right-forearm": {
				"rotate": [
					{ "time": 0, "angle": 46.7 }
				]
			},
			"right-claws": {
				"rotate": [
					{ "time": 0, "angle": -77.74 }
				],
				"translate": [
					{ "time": 0, "x": 0, "y": 0 }
				]
			},
			"left-arm": {
				"rotate": [
					{ "time": 0, "angle": -12.6 }
				],
				"translate": [
					{ "time": 0, "x": 0, "y": 0 }
				]
			},
			"left-forearm": {
				"rotate": [
					{ "time": 0, "angle": -31.8 }
				]
			}
		}
	},
	"fall": {
		"bones": {
			"jaw": {
				"rotate": [
					{ "time": 0, "angle": 28.3 },
					{ "time": 0.3333, "angle": 17.68 },
					{ "time": 0.6666, "angle": 40.55 },
					{ "time": 0.7666, "angle": 28.3 }
				],
				"translate": [
					{ "time": 0, "x": 0, "y": 0, "curve": "stepped" },
					{ "time": 0.7666, "x": 0, "y": 0 }
				],
				"scale": [
					{ "time": 0, "x": 1, "y": 1, "curve": "stepped" },
					{ "time": 0.7666, "x": 1, "y": 1 }
				]
			},
			"right-leg": {
				"rotate": [
					{ "time": 0, "angle": 54.77 },
					{ "time": 0.3333, "angle": 24.55 },
					{ "time": 0.6666, "angle": 53.26 },
					{ "time": 0.7666, "angle": 54.77 }
				],
				"translate": [
					{ "time": 0, "x": -4.84, "y": 17.32, "curve": "stepped" },
					{ "time": 0.7666, "x": -4.84, "y": 17.32 }
				],
				"scale": [
					{ "time": 0, "x": 1, "y": 1, "curve": "stepped" },
					{ "time": 0.7666, "x": 1, "y": 1 }
				]
			},
			"right-foot": {
				"rotate": [
					{ "time": 0, "angle": -65.11 },
					{ "time": 0.3333, "angle": -96.92 },
					{ "time": 0.6666, "angle": -58.75 },
					{ "time": 0.7666, "angle": -65.11 }
				],
				"translate": [
					{ "time": 0, "x": 0, "y": 0, "curve": "stepped" },
					{ "time": 0.7666, "x": 0, "y": 0 }
				],
				"scale": [
					{ "time": 0, "x": 1, "y": 1, "curve": "stepped" },
					{ "time": 0.7666, "x": 1, "y": 1 }
				]
			},
			"right-tibia": {
				"rotate": [
					{ "time": 0, "angle": -38.63 },
					{ "time": 0.3333, "angle": 15.92 },
					{ "time": 0.6666, "angle": -30.45 },
					{ "time": 0.7666, "angle": -38.63 }
				],
				"translate": [
					{ "time": 0, "x": 0, "y": 0, "curve": "stepped" },
					{ "time": 0.7666, "x": 0, "y": 0 }
				],
				"scale": [
					{ "time": 0, "x": 1, "y": 1, "curve": "stepped" },
					{ "time": 0.7666, "x": 1, "y": 1 }
				]
			},
			"left-leg": {
				"rotate": [
					{ "time": 0, "angle": 33.18 },
					{ "time": 0.3333, "angle": 47.04 },
					{ "time": 0.6666, "angle": 35.57 },
					{ "time": 0.7666, "angle": 33.18 }
				],
				"translate": [
					{ "time": 0, "x": -3.26, "y": 9.3, "curve": "stepped" },
					{ "time": 0.7666, "x": -3.26, "y": 9.3 }
				],
				"scale": [
					{ "time": 0, "x": 1, "y": 1, "curve": "stepped" },
					{ "time": 0.7666, "x": 1, "y": 1 }
				]
			},
			"left-tibia": {
				"rotate": [
					{ "time": 0, "angle": 10.89 },
					{ "time": 0.3333, "angle": -9.74 },
					{ "time": 0.6666, "angle": 0.64 },
					{ "time": 0.7666, "angle": 10.89 }
				],
				"translate": [
					{ "time": 0, "x": 0, "y": 0, "curve": "stepped" },
					{ "time": 0.7666, "x": 0, "y": 0 }
				],
				"scale": [
					{ "time": 0, "x": 1, "y": 1, "curve": "stepped" },
					{ "time": 0.7666, "x": 1, "y": 1 }
				]
			},
			"left-foot": {
				"rotate": [
					{ "time": 0, "angle": -99.8 },
					{ "time": 0.3333, "angle": -47.21 },
					{ "time": 0.6666, "angle": -71.55 },
					{ "time": 0.7666, "angle": -99.8 }
				],
				"translate": [
					{ "time": 0, "x": 0, "y": 0, "curve": "stepped" },
					{ "time": 0.7666, "x": 0, "y": 0 }
				],
				"scale": [
					{ "time": 0, "x": 1, "y": 1, "curve": "stepped" },
					{ "time": 0.7666, "x": 1, "y": 1 }
				]
			},
			"backbone": {
				"rotate": [
					{ "time": 0, "angle": -1.67 },
					{ "time": 0.3333, "angle": 1.51 },
					{ "time": 0.7666, "angle": -1.67 }
				],
				"translate": [
					{ "time": 0, "x": 0, "y": 18.66, "curve": "stepped" },
					{ "time": 0.7666, "x": 0, "y": 18.66 }
				],
				"scale": [
					{ "time": 0, "x": 1, "y": 1, "curve": "stepped" },
					{ "time": 0.7666, "x": 1, "y": 1 }
				]
			},
			"skull": {
				"rotate": [
					{ "time": 0, "angle": 298.44 },
					{ "time": 0.3333, "angle": 309.46 },
					{ "time": 0.6666, "angle": 297.48 },
					{ "time": 0.7666, "angle": 298.44 }
				],
				"translate": [
					{ "time": 0, "x": -22.69, "y": 12.56, "curve": "stepped" },
					{ "time": 0.7666, "x": -22.69, "y": 12.56 }
				],
				"scale": [
					{ "time": 0, "x": 1, "y": 1, "curve": "stepped" },
					{ "time": 0.7666, "x": 1, "y": 1 }
				]
			},
			"tailbone2": {
				"rotate": [
					{ "time": 0, "angle": -20.74 },
					{ "time": 0.3333, "angle": -6.06 },
					{ "time": 0.7666, "angle": -20.74 }
				],
				"translate": [
					{ "time": 0, "x": 0, "y": 0, "curve": "stepped" },
					{ "time": 0.7666, "x": 0, "y": 0 }
				],
				"scale": [
					{ "time": 0, "x": 1, "y": 1, "curve": "stepped" },
					{ "time": 0.7666, "x": 1, "y": 1 }
				]
			},
			"tailbone1": {
				"rotate": [
					{ "time": 0, "angle": 2.25 },
					{ "time": 0.3333, "angle": -10.59 },
					{ "time": 0.7666, "angle": 2.25 }
				],
				"translate": [
					{ "time": 0, "x": 0, "y": 0, "curve": "stepped" },
					{ "time": 0.7666, "x": 0, "y": 0 }
				],
				"scale": [
					{ "time": 0, "x": 1, "y": 1, "curve": "stepped" },
					{ "time": 0.7666, "x": 1, "y": 1 }
				]
			},
			"right-arm": {
				"rotate": [
					{ "time": 0, "angle": 18.23, "curve": "stepped" },
					{ "time": 0.7666, "angle": 18.23 }
				],
				"translate": [
					{ "time": 0, "x": 5.07, "y": 2.01, "curve": "stepped" },
					{ "time": 0.7666, "x": 5.07, "y": 2.01 }
				],
				"scale": [
					{ "time": 0, "x": 1, "y": 1, "curve": "stepped" },
					{ "time": 0.7666, "x": 1, "y": 1 }
				]
			},
			"right-forearm": {
				"rotate": [
					{ "time": 0, "angle": 35.07, "curve": "stepped" },
					{ "time": 0.7666, "angle": 35.07 }
				],
				"translate": [
					{ "time": 0, "x": 0, "y": 0, "curve": "stepped" },
					{ "time": 0.7666, "x": 0, "y": 0 }
				],
				"scale": [
					{ "time": 0, "x": 1, "y": 1, "curve": "stepped" },
					{ "time": 0.7666, "x": 1, "y": 1 }
				]
			},
			"right-claws": {
				"rotate": [
					{ "time": 0, "angle": -37.39, "curve": "stepped" },
					{ "time": 0.7666, "angle": -37.39 }
				],
				"translate": [
					{ "time": 0, "x": 0, "y": 0, "curve": "stepped" },
					{ "time": 0.7666, "x": 0, "y": 0 }
				],
				"scale": [
					{ "time": 0, "x": 1, "y": 1, "curve": "stepped" },
					{ "time": 0.7666, "x": 1, "y": 1 }
				]
			},
			"left-arm": {
				"rotate": [
					{ "time": 0, "angle": 35.95, "curve": "stepped" },
					{ "time": 0.7666, "angle": 35.95 }
				],
				"translate": [
					{ "time": 0, "x": 0, "y": 0, "curve": "stepped" },
					{ "time": 0.7666, "x": 0, "y": 0 }
				],
				"scale": [
					{ "time": 0, "x": 1, "y": 1, "curve": "stepped" },
					{ "time": 0.7666, "x": 1, "y": 1 }
				]
			},
			"left-forearm": {
				"rotate": [
					{ "time": 0, "angle": -27.88, "curve": "stepped" },
					{ "time": 0.7666, "angle": -27.88 }
				],
				"translate": [
					{ "time": 0, "x": 0, "y": 0, "curve": "stepped" },
					{ "time": 0.7666, "x": 0, "y": 0 }
				],
				"scale": [
					{ "time": 0, "x": 1, "y": 1, "curve": "stepped" },
					{ "time": 0.7666, "x": 1, "y": 1 }
				]
			},
			"root": {
				"rotate": [
					{ "time": 0, "angle": 0, "curve": "stepped" },
					{ "time": 0.7666, "angle": 0 }
				],
				"translate": [
					{ "time": 0, "x": 0, "y": 0, "curve": "stepped" },
					{ "time": 0.7666, "x": 0, "y": 0 }
				],
				"scale": [
					{ "time": 0, "x": 1, "y": 1, "curve": "stepped" },
					{ "time": 0.7666, "x": 1, "y": 1 }
				]
			}
		}
	},
	"intro": {
		"bones": {
			"skull": {
				"rotate": [
					{ "time": 0, "angle": 326.37 },
					{ "time": 0.6666, "angle": 323.88 },
					{ "time": 0.8333, "angle": 319.11 },
					{ "time": 1, "angle": 324.57 },
					{ "time": 1.3333, "angle": 324.21 },
					{ "time": 1.4666, "angle": 318.9 },
					{ "time": 1.8333, "angle": 333.16 },
					{ "time": 2, "angle": 321.15 },
					{ "time": 2.1666, "angle": 328.45, "curve": "stepped" },
					{ "time": 2.8333, "angle": 328.45 },
					{ "time": 3.1629, "angle": 312.15 },
					{ "time": 3.6518, "angle": -8.89 }
				],
				"translate": [
					{ "time": 0, "x": -19.29, "y": 7.15 },
					{ "time": 3.6518, "x": -14.31, "y": 6.79 }
				]
			},
			"jaw": {
				"rotate": [
					{ "time": 0, "angle": 29.58 },
					{ "time": 3.1629, "angle": 33.08 },
					{ "time": 3.6518, "angle": 9.23 }
				]
			},
			"backbone": {
				"rotate": [
					{ "time": 0, "angle": 0, "curve": "stepped" },
					{ "time": 2, "angle": 0, "curve": "stepped" },
					{ "time": 2.1666, "angle": 0, "curve": "stepped" },
					{ "time": 2.8333, "angle": 0 },
					{ "time": 3.1629, "angle": 17.65 },
					{ "time": 3.6518, "angle": -16.21 }
				],
				"translate": [
					{ "time": 0, "x": 0, "y": 0 },
					{ "time": 0.5, "x": 18.76, "y": 10.94 },
					{ "time": 0.6666, "x": 22.67, "y": 2.34 },
					{ "time": 1.1666, "x": 51.61, "y": 11.73 },
					{ "time": 1.3333, "x": 60.21, "y": -3.12 },
					{ "time": 1.8333, "x": 98.53, "y": 3.91 },
					{ "time": 2, "x": 105.56, "y": -1.12 },
					{ "time": 2.1666, "x": 105.56, "y": -3.12 },
					{ "time": 2.3333, "x": 105.56, "y": -13.54 },
					{ "time": 2.8333, "x": 105.56, "y": -3.12 },
					{ "time": 3.1629, "x": 85.56, "y": 1.56 },
					{ "time": 3.6518, "x": 173.56, "y": 1.56 }
				],
				"scale": [
					{ "time": 2, "x": 1, "y": 1, "curve": "stepped" },
					{ "time": 2.1666, "x": 1, "y": 1, "curve": "stepped" },
					{ "time": 2.8333, "x": 1, "y": 1 }
				]
			},
			"left-forearm": {
				"rotate": [
					{ "time": 0, "angle": 0 },
					{ "time": 0.6333, "angle": 8.1 },
					{ "time": 0.6666, "angle": 0 },
					{ "time": 1.3, "angle": -9.88 },
					{ "time": 2, "angle": 4.42 },
					{ "time": 3.1629, "angle": 10.17 },
					{ "time": 3.6518, "angle": -35.04 }
				]
			},
			"right-forearm": {
				"rotate": [
					{ "time": 0, "angle": 0 },
					{ "time": 0.5, "angle": -26.74 },
					{ "time": 0.6666, "angle": 0 },
					{ "time": 3.1629, "angle": 34.37 },
					{ "time": 3.4074, "angle": -16.7 },
					{ "time": 3.6518, "angle": 5.41 }
				]
			},
			"right-claws": {
				"rotate": [
					{ "time": 0.6666, "angle": 0 },
					{ "time": 3.1629, "angle": -21.11 },
					{ "time": 3.4074, "angle": 18.92 },
					{ "time": 3.6518, "angle": -22.95 }
				]
			},
			"left-arm": {
				"rotate": [
					{ "time": 0, "angle": 0 },
					{ "time": 0.6333, "angle": 12.92 },
					{ "time": 1.3, "angle": 3.04 },
					{ "time": 2, "angle": -2.93 },
					{ "time": 2.1666, "angle": 5.65, "curve": "stepped" },
					{ "time": 2.8333, "angle": 5.65, "curve": "stepped" },
					{ "time": 3.1629, "angle": 5.65 },
					{ "time": 3.6518, "angle": 25.02 }
				],
				"translate": [
					{ "time": 0, "x": -1.26, "y": -3.42 },
					{ "time": 0.6333, "x": -0.54, "y": -1.46 },
					{ "time": 0.8, "x": 0.9, "y": 2.44 },
					{ "time": 1.3, "x": -1.45, "y": -3.91 },
					{ "time": 1.4666, "x": 0.36, "y": 0.97 },
					{ "time": 2, "x": -1.81, "y": -4.89 }
				]
			},
			"right-arm": {
				"rotate": [
					{ "time": 0, "angle": 0 },
					{ "time": 0.6333, "angle": -18.8 },
					{ "time": 1.3, "angle": 12.1 },
					{ "time": 2, "angle": -17.52 },
					{ "time": 2.1666, "angle": -16.16, "curve": "stepped" },
					{ "time": 2.8333, "angle": -16.16, "curve": "stepped" },
					{ "time": 3.1629, "angle": -16.16 },
					{ "time": 3.4074, "angle": -9.75 },
					{ "time": 3.6518, "angle": -3.34 }
				],
				"translate": [
					{ "time": 0, "x": -1.26, "y": -3.42 },
					{ "time": 0.6333, "x": -0.54, "y": -1.46 },
					{ "time": 0.8, "x": 0.9, "y": 2.44 },
					{ "time": 1.3, "x": -1.45, "y": -3.91 },
					{ "time": 1.4666, "x": 0.36, "y": 0.97 },
					{ "time": 2, "x": -1.81, "y": -4.89 }
				]
			},
			"right-leg": {
				"rotate": [
					{ "time": 0, "angle": 0 },
					{ "time": 1.5, "angle": -33.88 },
					{ "time": 3.1629, "angle": -53.09 }
				]
			},
			"left-leg": {
				"rotate": [
					{ "time": 0, "angle": 30.13 },
					{ "time": 1.3333, "angle": 2.85 },
					{ "time": 1.8333, "angle": 56.32 },
					{ "time": 2, "angle": 9.21 },
					{ "time": 2.3333, "angle": 24.58 },
					{ "time": 2.8333, "angle": 16.73 },
					{ "time": 3.1629, "angle": 6.26 },
					{ "time": 3.6518, "angle": 29.93 }
				],
				"translate": [
					{ "time": 2.3333, "x": -1.08, "y": -2.79 },
					{ "time": 3.1629, "x": 1.68, "y": 2.52 }
				]
			},
			"left-tibia": {
				"rotate": [
					{ "time": 0, "angle": -49.2, "curve": "stepped" },
					{ "time": 1.3333, "angle": -49.2 },
					{ "time": 1.8333, "angle": -40.65 },
					{ "time": 2, "angle": 23.14 },
					{ "time": 2.3333, "angle": -4.63 },
					{ "time": 2.8333, "angle": 18.32 },
					{ "time": 3.1629, "angle": 31.01 },
					{ "time": 3.6518, "angle": -2.96 }
				]
			},
			"left-foot": {
				"rotate": [
					{ "time": 0, "angle": -42.52 },
					{ "time": 1.3333, "angle": -48.35 },
					{ "time": 1.8333, "angle": -51.08 },
					{ "time": 2, "angle": -34.01 },
					{ "time": 2.3333, "angle": -23.57 },
					{ "time": 2.8333, "angle": -39.7 },
					{ "time": 3.1629, "angle": -61.2 },
					{ "time": 3.6518, "angle": -23.87 }
				]
			},
			"right-foot": {
				"rotate": [
					{ "time": 3.1629, "angle": 26.18 }
				]
			}
		}
	},
	"jump": {
		"bones": {
			"jaw": {
				"rotate": [
					{ "time": 0, "angle": 27.06 },
					{ "time": 0.3289, "angle": 26.06 },
					{ "time": 0.497, "angle": 2.08 }
				],
				"translate": [
					{ "time": 0, "x": 0, "y": 0 }
				]
			},
			"right-leg": {
				"rotate": [
					{ "time": 0, "angle": 1.2 },
					{ "time": 0.497, "angle": -78.65 },
					{ "time": 0.9941, "angle": 11.16 }
				],
				"translate": [
					{ "time": 0, "x": -9.66, "y": 3.03 }
				]
			},
			"right-foot": {
				"rotate": [
					{ "time": 0, "angle": -1.17 },
					{ "time": 0.497, "angle": -100.49 },
					{ "time": 0.9941, "angle": -10.78 }
				]
			},
			"right-tibia": {
				"rotate": [
					{ "time": 0, "angle": -40.17 },
					{ "time": 0.497, "angle": 31 },
					{ "time": 0.9941, "angle": -11.64 }
				]
			},
			"left-leg": {
				"rotate": [
					{ "time": 0, "angle": 27.41 },
					{ "time": 0.3333, "angle": -31.92 },
					{ "time": 0.8333, "angle": 76.93 }
				],
				"translate": [
					{ "time": 0, "x": -3.26, "y": 9.3 }
				]
			},
			"left-tibia": {
				"rotate": [
					{ "time": 0, "angle": -50.08 },
					{ "time": 0.497, "angle": -13.94 },
					{ "time": 0.9941, "angle": -61.39 }
				]
			},
			"left-foot": {
				"rotate": [
					{ "time": 0, "angle": -15.34 },
					{ "time": 0.497, "angle": -91.37 },
					{ "time": 0.9941, "angle": -19.29 }
				]
			},
			"backbone": {
				"rotate": [
					{ "time": 0, "angle": 0 },
					{ "time": 0.3289, "angle": 2.28 },
					{ "time": 0.497, "angle": 19.2 },
					{ "time": 0.9941, "angle": -5.04 }
				],
				"translate": [
					{ "time": 0, "x": 0, "y": -64.84 },
					{ "time": 0.3289, "x": 0, "y": 18.66 },
					{ "time": 0.497, "x": 0, "y": -6.95 }
				]
			},
			"skull": {
				"rotate": [
					{ "time": 0, "angle": 322.55 },
					{ "time": 0.3289, "angle": 317.19 },
					{ "time": 0.497, "angle": 313.18 },
					{ "time": 0.9941, "angle": 335.3 }
				],
				"translate": [
					{ "time": 0, "x": -11.61, "y": 14.57 },
					{ "time": 0.3289, "x": -27.55, "y": 19.11 },
					{ "time": 0.497, "x": -25.74, "y": 21.31 },
					{ "time": 0.9941, "x": -14.74, "y": 15.61 }
				]
			},
			"tailbone2": {
				"rotate": [
					{ "time": 0, "angle": -5.64 },
					{ "time": 0.497, "angle": -30.04 }
				]
			},
			"tailbone1": {
				"rotate": [
					{ "time": 0, "angle": 360 },
					{ "time": 0.497, "angle": 14.65 }
				]
			},
			"right-arm": {
				"rotate": [
					{ "time": 0, "angle": 6.63 },
					{ "time": 0.497, "angle": -35.46 },
					{ "time": 0.9941, "angle": 21.1 }
				],
				"translate": [
					{ "time": 0, "x": 0.58, "y": 1.57 },
					{ "time": 0.497, "x": 16.68, "y": -11.71 },
					{ "time": 0.9941, "x": 4.78, "y": 2.35 }
				]
			},
			"right-forearm": {
				"rotate": [
					{ "time": 0, "angle": -12.73 },
					{ "time": 0.497, "angle": 35.07 }
				]
			},
			"right-claws": {
				"rotate": [
					{ "time": 0, "angle": -8.9 },
					{ "time": 0.497, "angle": -37.39 }
				]
			},
			"left-arm": {
				"rotate": [
					{ "time": 0, "angle": -17.8 },
					{ "time": 0.497, "angle": -36.54 },
					{ "time": 0.9941, "angle": 37.74 }
				],
				"translate": [
					{ "time": 0, "x": 0, "y": 0 }
				]
			},
			"left-forearm": {
				"rotate": [
					{ "time": 0, "angle": -27.88 }
				]
			}
		}
	},
	"jump-full": {
		"bones": {
			"jaw": {
				"rotate": [
					{ "time": 0, "angle": 27.06 },
					{ "time": 0.2192, "angle": 2.08 },
					{ "time": 0.3289, "angle": 26.06 }
				],
				"translate": [
					{ "time": 0, "x": 0, "y": 0 }
				]
			},
			"right-leg": {
				"rotate": [
					{ "time": 0, "angle": 1.2 },
					{ "time": 0.2192, "angle": -78.65 },
					{ "time": 0.4385, "angle": 11.16 },
					{ "time": 0.8223, "angle": -0.85 }
				],
				"translate": [
					{ "time": 0, "x": -9.66, "y": 3.03 }
				]
			},
			"right-foot": {
				"rotate": [
					{ "time": 0, "angle": -1.17 },
					{ "time": 0.2192, "angle": -100.49 },
					{ "time": 0.4385, "angle": -10.78 },
					{ "time": 0.6578, "angle": -84.77 },
					{ "time": 0.8223, "angle": -9.92 }
				]
			},
			"right-tibia": {
				"rotate": [
					{ "time": 0, "angle": -40.17 },
					{ "time": 0.2192, "angle": 31 },
					{ "time": 0.4385, "angle": -11.64 },
					{ "time": 0.6578, "angle": 44.23 },
					{ "time": 0.8223, "angle": -33.73 }
				]
			},
			"left-leg": {
				"rotate": [
					{ "time": 0, "angle": 27.41 },
					{ "time": 0.2192, "angle": -31.92 },
					{ "time": 0.4385, "angle": 76.93 },
					{ "time": 0.6578, "angle": 51.4 },
					{ "time": 0.8223, "angle": 27.91 }
				],
				"translate": [
					{ "time": 0, "x": -3.26, "y": 9.3 }
				]
			},
			"left-tibia": {
				"rotate": [
					{ "time": 0, "angle": -50.08 },
					{ "time": 0.2192, "angle": -13.94 },
					{ "time": 0.4385, "angle": -61.39 },
					{ "time": 0.6578, "angle": 20.47 },
					{ "time": 0.8223, "angle": -49.23 }
				]
			},
			"left-foot": {
				"rotate": [
					{ "time": 0, "angle": -15.34 },
					{ "time": 0.2192, "angle": -91.37 },
					{ "time": 0.4385, "angle": -19.29 },
					{ "time": 0.6578, "angle": -102.04 },
					{ "time": 0.8223, "angle": -21.08 }
				]
			},
			"backbone": {
				"rotate": [
					{ "time": 0, "angle": 0 },
					{ "time": 0.2192, "angle": 19.2 },
					{ "time": 0.3289, "angle": 2.28 },
					{ "time": 0.4385, "angle": -5.04 },
					{ "time": 0.8223, "angle": -0.13 }
				],
				"translate": [
					{ "time": 0, "x": 0, "y": -64.84 },
					{ "time": 0.2192, "x": 0, "y": -6.95 },
					{ "time": 0.3289, "x": 0, "y": 18.66 },
					{ "time": 0.6578, "x": 0, "y": -32.57 },
					{ "time": 0.8223, "x": -0.94, "y": -61.99 }
				]
			},
			"skull": {
				"rotate": [
					{ "time": 0, "angle": 322.55 },
					{ "time": 0.2192, "angle": 313.18 },
					{ "time": 0.3289, "angle": 317.19 },
					{ "time": 0.4385, "angle": 335.3 },
					{ "time": 0.8223, "angle": 323.91 }
				],
				"translate": [
					{ "time": 0, "x": -11.61, "y": 14.57 },
					{ "time": 0.2192, "x": -25.74, "y": 21.31 },
					{ "time": 0.3289, "x": -27.55, "y": 19.11 },
					{ "time": 0.4385, "x": -14.74, "y": 15.61 },
					{ "time": 0.8223, "x": -13.52, "y": 16.18 }
				]
			},
			"tailbone2": {
				"rotate": [
					{ "time": 0, "angle": -5.64 },
					{ "time": 0.2192, "angle": -30.04 },
					{ "time": 0.6578, "angle": -36.34 },
					{ "time": 0.8223, "angle": -9.72 }
				]
			},
			"tailbone1": {
				"rotate": [
					{ "time": 0, "angle": 360 },
					{ "time": 0.2192, "angle": 14.65 },
					{ "time": 0.6578, "angle": -31.12 },
					{ "time": 0.7675, "angle": -6.21 },
					{ "time": 0.8223, "angle": 5.6 }
				]
			},
			"right-arm": {
				"rotate": [
					{ "time": 0, "angle": 6.63 },
					{ "time": 0.2192, "angle": -35.46 },
					{ "time": 0.4385, "angle": 21.1 }
				],
				"translate": [
					{ "time": 0, "x": 0.58, "y": 1.57 },
					{ "time": 0.2192, "x": 16.68, "y": -11.71 },
					{ "time": 0.4385, "x": 4.78, "y": 2.35 },
					{ "time": 0.8223, "x": 6.75, "y": 7.69 }
				]
			},
			"right-forearm": {
				"rotate": [
					{ "time": 0, "angle": -12.73 },
					{ "time": 0.2192, "angle": 35.07 },
					{ "time": 0.8223, "angle": -25.83 }
				]
			},
			"right-claws": {
				"rotate": [
					{ "time": 0, "angle": -8.9 },
					{ "time": 0.2192, "angle": -37.39 },
					{ "time": 0.8223, "angle": -31.2 }
				]
			},
			"left-arm": {
				"rotate": [
					{ "time": 0, "angle": -17.8 },
					{ "time": 0.2192, "angle": -36.54 },
					{ "time": 0.4385, "angle": 37.74 },
					{ "time": 0.8223, "angle": -11.85 }
				],
				"translate": [
					{ "time": 0, "x": 0, "y": 0 }
				]
			},
			"left-forearm": {
				"rotate": [
					{ "time": 0, "angle": -27.88 }
				]
			}
		}
	},
	"land": {
		"bones": {
			"jaw": {
				"rotate": [
					{ "time": 0, "angle": 26.06, "curve": "stepped" },
					{ "time": 0.1333, "angle": 26.06, "curve": "stepped" },
					{ "time": 0.2666, "angle": 26.06 }
				],
				"translate": [
					{ "time": 0, "x": 0, "y": 0, "curve": "stepped" },
					{ "time": 0.1333, "x": 0, "y": 0, "curve": "stepped" },
					{ "time": 0.2666, "x": 0, "y": 0 }
				]
			},
			"right-leg": {
				"rotate": [
					{ "time": 0, "angle": 5.06 },
					{ "time": 0.1333, "angle": 1.12 },
					{ "time": 0.2, "angle": -0.85 },
					{ "time": 0.2666, "angle": 1.12 }
				],
				"translate": [
					{ "time": 0, "x": -9.66, "y": 3.03, "curve": "stepped" },
					{ "time": 0.1333, "x": -9.66, "y": 3.03, "curve": "stepped" },
					{ "time": 0.2666, "x": -9.66, "y": 3.03 }
				]
			},
			"right-foot": {
				"rotate": [
					{ "time": 0, "angle": -76.48 },
					{ "time": 0.0333, "angle": -84.77 },
					{ "time": 0.1333, "angle": -39.86 },
					{ "time": 0.2, "angle": -9.92 },
					{ "time": 0.2666, "angle": -39.86 }
				],
				"translate": [
					{ "time": 0, "x": 0, "y": 0, "curve": "stepped" },
					{ "time": 0.1333, "x": 0, "y": 0, "curve": "stepped" },
					{ "time": 0.2666, "x": 0, "y": 0 }
				]
			},
			"right-tibia": {
				"rotate": [
					{ "time": 0, "angle": 37.97 },
					{ "time": 0.0333, "angle": 44.23 },
					{ "time": 0.1333, "angle": -2.54 },
					{ "time": 0.2, "angle": -33.73 },
					{ "time": 0.2666, "angle": -2.54 }
				],
				"translate": [
					{ "time": 0, "x": 0, "y": 0, "curve": "stepped" },
					{ "time": 0.1333, "x": 0, "y": 0, "curve": "stepped" },
					{ "time": 0.2666, "x": 0, "y": 0 }
				]
			},
			"left-leg": {
				"rotate": [
					{ "time": 0, "angle": 54.26 },
					{ "time": 0.0333, "angle": 51.4 },
					{ "time": 0.1333, "angle": 37.31 },
					{ "time": 0.2, "angle": 27.91 },
					{ "time": 0.2666, "angle": 37.31 }
				],
				"translate": [
					{ "time": 0, "x": -3.26, "y": 9.3, "curve": "stepped" },
					{ "time": 0.1333, "x": -3.26, "y": 9.3, "curve": "stepped" },
					{ "time": 0.2666, "x": -3.26, "y": 9.3 }
				]
			},
			"left-tibia": {
				"rotate": [
					{ "time": 0, "angle": 11.31 },
					{ "time": 0.0333, "angle": 20.47 },
					{ "time": 0.1333, "angle": -21.34 },
					{ "time": 0.2, "angle": -49.23 },
					{ "time": 0.2666, "angle": -21.34 }
				],
				"translate": [
					{ "time": 0, "x": 0, "y": 0, "curve": "stepped" },
					{ "time": 0.1333, "x": 0, "y": 0, "curve": "stepped" },
					{ "time": 0.2666, "x": 0, "y": 0 }
				]
			},
			"left-foot": {
				"rotate": [
					{ "time": 0, "angle": -92.77 },
					{ "time": 0.0333, "angle": -102.04 },
					{ "time": 0.1333, "angle": -53.46 },
					{ "time": 0.2, "angle": -21.08 },
					{ "time": 0.2666, "angle": -53.46 }
				],
				"translate": [
					{ "time": 0, "x": 0, "y": 0, "curve": "stepped" },
					{ "time": 0.1333, "x": 0, "y": 0, "curve": "stepped" },
					{ "time": 0.2666, "x": 0, "y": 0 }
				]
			},
			"backbone": {
				"rotate": [
					{ "time": 0, "angle": -2.55 },
					{ "time": 0.1333, "angle": -0.94 },
					{ "time": 0.2, "angle": -0.13 },
					{ "time": 0.2666, "angle": -0.94 }
				],
				"translate": [
					{ "time": 0, "x": 0, "y": -28.75 },
					{ "time": 0.0333, "x": 0, "y": -32.57 },
					{ "time": 0.1333, "x": -0.56, "y": -50.22 },
					{ "time": 0.2, "x": -0.94, "y": -61.99 },
					{ "time": 0.2666, "x": -0.56, "y": -50.22 }
				]
			},
			"skull": {
				"rotate": [
					{ "time": 0, "angle": -30.47 },
					{ "time": 0.1333, "angle": -34.21 },
					{ "time": 0.2, "angle": 323.91 },
					{ "time": 0.2666, "angle": -34.21 }
				],
				"translate": [
					{ "time": 0, "x": -14.12, "y": 15.9 },
					{ "time": 0.1333, "x": -13.72, "y": 16.08 },
					{ "time": 0.2, "x": -13.52, "y": 16.18 },
					{ "time": 0.2666, "x": -13.72, "y": 16.08 }
				]
			},
			"tailbone2": {
				"rotate": [
					{ "time": 0, "angle": -35.98 },
					{ "time": 0.0333, "angle": -36.34 },
					{ "time": 0.1333, "angle": -20.36 },
					{ "time": 0.2, "angle": -9.72 },
					{ "time": 0.2666, "angle": -20.36 }
				],
				"translate": [
					{ "time": 0, "x": 0, "y": 0, "curve": "stepped" },
					{ "time": 0.1333, "x": 0, "y": 0, "curve": "stepped" },
					{ "time": 0.2666, "x": 0, "y": 0 }
				]
			},
			"tailbone1": {
				"rotate": [
					{ "time": 0, "angle": -28.55 },
					{ "time": 0.0333, "angle": -31.12 },
					{ "time": 0.1333, "angle": -6.21 },
					{ "time": 0.2, "angle": 5.6 },
					{ "time": 0.2666, "angle": -6.21 }
				],
				"translate": [
					{ "time": 0, "x": 0, "y": 0, "curve": "stepped" },
					{ "time": 0.1333, "x": 0, "y": 0, "curve": "stepped" },
					{ "time": 0.2666, "x": 0, "y": 0 }
				]
			},
			"right-arm": {
				"rotate": [
					{ "time": 0, "angle": 21.1, "curve": "stepped" },
					{ "time": 0.1333, "angle": 21.1, "curve": "stepped" },
					{ "time": 0.2666, "angle": 21.1 }
				],
				"translate": [
					{ "time": 0, "x": 5.78, "y": 5.06 },
					{ "time": 0.1333, "x": 6.43, "y": 6.82 },
					{ "time": 0.2, "x": 6.75, "y": 7.69 },
					{ "time": 0.2666, "x": 6.43, "y": 6.82 }
				]
			},
			"right-forearm": {
				"rotate": [
					{ "time": 0, "angle": -6.74 },
					{ "time": 0.1333, "angle": -19.47 },
					{ "time": 0.2, "angle": -25.83 },
					{ "time": 0.2666, "angle": -19.47 }
				],
				"translate": [
					{ "time": 0, "x": 0, "y": 0, "curve": "stepped" },
					{ "time": 0.1333, "x": 0, "y": 0, "curve": "stepped" },
					{ "time": 0.2666, "x": 0, "y": 0 }
				]
			},
			"right-claws": {
				"rotate": [
					{ "time": 0, "angle": -33.14 },
					{ "time": 0.1333, "angle": -31.85 },
					{ "time": 0.2, "angle": -31.2 },
					{ "time": 0.2666, "angle": -31.85 }
				],
				"translate": [
					{ "time": 0, "x": 0, "y": 0, "curve": "stepped" },
					{ "time": 0.1333, "x": 0, "y": 0, "curve": "stepped" },
					{ "time": 0.2666, "x": 0, "y": 0 }
				]
			},
			"left-arm": {
				"rotate": [
					{ "time": 0, "angle": 12.57 },
					{ "time": 0.1333, "angle": -3.71 },
					{ "time": 0.2, "angle": -11.85 },
					{ "time": 0.2666, "angle": -3.71 }
				],
				"translate": [
					{ "time": 0, "x": 0, "y": 0, "curve": "stepped" },
					{ "time": 0.1333, "x": 0, "y": 0, "curve": "stepped" },
					{ "time": 0.2666, "x": 0, "y": 0 }
				]
			},
			"left-forearm": {
				"rotate": [
					{ "time": 0, "angle": -27.88, "curve": "stepped" },
					{ "time": 0.1333, "angle": -27.88, "curve": "stepped" },
					{ "time": 0.2666, "angle": -27.88 }
				],
				"translate": [
					{ "time": 0, "x": 0, "y": 0, "curve": "stepped" },
					{ "time": 0.1333, "x": 0, "y": 0, "curve": "stepped" },
					{ "time": 0.2666, "x": 0, "y": 0 }
				]
			},
			"root": {
				"rotate": [
					{ "time": 0, "angle": 0, "curve": "stepped" },
					{ "time": 0.1333, "angle": 0, "curve": "stepped" },
					{ "time": 0.2666, "angle": 0 }
				],
				"translate": [
					{ "time": 0, "x": 0, "y": 0, "curve": "stepped" },
					{ "time": 0.1333, "x": 0, "y": 0, "curve": "stepped" },
					{ "time": 0.2666, "x": 0, "y": 0 }
				]
			}
		}
	},
	"roar": {
		"bones": {
			"backbone": {
				"rotate": [
					{ "time": 0, "angle": 0 },
					{ "time": 0.0666, "angle": -17.73 },
					{ "time": 0.4, "angle": 36.38 },
					{ "time": 0.7, "angle": -16.65, "curve": "stepped" },
					{ "time": 1, "angle": -16.65 },
					{ "time": 1.3333, "angle": -4.81 },
					{ "time": 1.5333, "angle": 304.83 },
					{ "time": 2.0666, "angle": -55.16, "curve": "stepped" },
					{ "time": 2.2666, "angle": -55.16 },
					{ "time": 2.5, "angle": -26 },
					{ "time": 2.6666, "angle": -5.93 }
				],
				"translate": [
					{ "time": 0, "x": 0, "y": 0 },
					{ "time": 0.0666, "x": 0, "y": -14.74 },
					{ "time": 0.4, "x": 15.61, "y": 51.43 },
					{ "time": 0.7, "x": 134.71, "y": -53.64 },
					{ "time": 1, "x": 133.77, "y": -29.38 },
					{ "time": 1.3333, "x": 119.49, "y": -24.38 },
					{ "time": 1.5333, "x": 150.77, "y": -37.38, "curve": "stepped" },
					{ "time": 2.0666, "x": 150.77, "y": -37.38, "curve": "stepped" },
					{ "time": 2.2666, "x": 150.77, "y": -37.38 },
					{ "time": 2.5, "x": 128.69, "y": -1.5 }
				]
			},
			"right-leg": {
				"rotate": [
					{ "time": 0, "angle": 0 },
					{ "time": 0.0666, "angle": 28.22 },
					{ "time": 0.4, "angle": -62.41 },
					{ "time": 0.7, "angle": -35.46 },
					{ "time": 1, "angle": -31.11 },
					{ "time": 1.3333, "angle": -47.83 },
					{ "time": 1.5, "angle": 10.39 },
					{ "time": 1.6, "angle": 16.85, "curve": "stepped" },
					{ "time": 1.8333, "angle": 16.85 },
					{ "time": 2, "angle": 55.61 },
					{ "time": 2.1666, "angle": 51.11 },
					{ "time": 2.3333, "angle": 47.46 },
					{ "time": 2.5, "angle": 26.4 },
					{ "time": 2.6666, "angle": 4.16 }
				],
				"translate": [
					{ "time": 0.7, "x": 0.19, "y": 0.16, "curve": "stepped" },
					{ "time": 1.8333, "x": 0.19, "y": 0.16 },
					{ "time": 2, "x": 8.68, "y": 2.7 },
					{ "time": 2.1, "x": -3.47, "y": 16.28 },
					{ "time": 2.1666, "x": -2.44, "y": 15.94 },
					{ "time": 2.6666, "x": -3.91, "y": 5.12 }
				]
			},
			"left-leg": {
				"rotate": [
					{ "time": 0, "angle": 0 },
					{ "time": 0.0666, "angle": 62.33 },
					{ "time": 0.4, "angle": 81.1 },
					{ "time": 0.7, "angle": 95.14 },
					{ "time": 1, "angle": 62.36 },
					{ "time": 1.3333, "angle": 32.5 },
					{ "time": 1.5333, "angle": 84.63, "curve": "stepped" },
					{ "time": 2.0666, "angle": 84.63 },
					{ "time": 2.2333, "angle": 105.88 },
					{ "time": 2.3333, "angle": 63.47 },
					{ "time": 2.5, "angle": 27.04 },
					{ "time": 2.6666, "angle": 5.21 }
				],
				"translate": [
					{ "time": 0.4, "x": -21.46, "y": 5 },
					{ "time": 1.3333, "x": -30.78, "y": -1.76 },
					{ "time": 1.5333, "x": -34.49, "y": -9.39, "curve": "stepped" },
					{ "time": 2.0666, "x": -34.49, "y": -9.39 },
					{ "time": 2.2333, "x": -10.9, "y": -10.02 },
					{ "time": 2.5, "x": -17.53, "y": 8.81 },
					{ "time": 2.6666, "x": -9.61, "y": 7.74 }
				]
			},
			"left-tibia": {
				"rotate": [
					{ "time": 0, "angle": 0 },
					{ "time": 0.0666, "angle": -50.21 },
					{ "time": 0.4, "angle": -75.14 },
					{ "time": 0.6, "angle": -11.21 },
					{ "time": 0.7, "angle": -60.93 },
					{ "time": 1, "angle": -22.66 },
					{ "time": 1.3333, "angle": 22.95 },
					{ "time": 1.5333, "angle": 30.05, "curve": "stepped" },
					{ "time": 2.0666, "angle": 30.05 },
					{ "time": 2.2333, "angle": -38.1 },
					{ "time": 2.3333, "angle": 17.14 },
					{ "time": 2.5, "angle": 27.3 }
				]
			},
			"left-foot": {
				"rotate": [
					{ "time": 0, "angle": 0 },
					{ "time": 0.0666, "angle": 10.33 },
					{ "time": 0.4, "angle": -105.72 },
					{ "time": 0.7, "angle": -17.12 },
					{ "time": 1, "angle": -23.7 },
					{ "time": 1.3333, "angle": -54.6 },
					{ "time": 1.5333, "angle": -57.21, "curve": "stepped" },
					{ "time": 2.0666, "angle": -57.21 },
					{ "time": 2.2333, "angle": -21.48 },
					{ "time": 2.3333, "angle": -42.01 },
					{ "time": 2.5, "angle": -30.61 },
					{ "time": 2.6666, "angle": -20.25 }
				]
			},
			"right-foot": {
				"rotate": [
					{ "time": 0, "angle": 0 },
					{ "time": 0.0666, "angle": -14.24 },
					{ "time": 0.2666, "angle": -28.56 },
					{ "time": 0.4, "angle": -67.85 },
					{ "time": 0.5333, "angle": -18.25 },
					{ "time": 0.6, "angle": -8.99 },
					{ "time": 0.6333, "angle": -7.74 },
					{ "time": 0.7, "angle": -15.95 },
					{ "time": 1, "angle": -35.24 },
					{ "time": 1.3333, "angle": -24.26 },
					{ "time": 1.5333, "angle": -91.56, "curve": "stepped" },
					{ "time": 1.8333, "angle": -91.56 },
					{ "time": 1.9333, "angle": -12.84 },
					{ "time": 1.9666, "angle": -7.33 },
					{ "time": 2, "angle": -19.87 },
					{ "time": 2.1666, "angle": -18.9 },
					{ "time": 2.5, "angle": -14.8 },
					{ "time": 2.6666, "angle": 14.95 }
				]
			},
			"right-tibia": {
				"rotate": [
					{ "time": 0, "angle": 0 },
					{ "time": 0.0666, "angle": 3.84 },
					{ "time": 0.2666, "angle": 4.63 },
					{ "time": 0.4, "angle": 23.71 },
					{ "time": 0.5333, "angle": -17.68 },
					{ "time": 0.6333, "angle": -39.24 },
					{ "time": 0.7, "angle": -41.59 },
					{ "time": 1, "angle": -17.16 },
					{ "time": 1.3333, "angle": -13.78 },
					{ "time": 1.5333, "angle": 26.62 },
					{ "time": 1.8333, "angle": 23.58 },
					{ "time": 1.9333, "angle": -38.38 },
					{ "time": 2, "angle": -2.54 },
					{ "time": 2.1666, "angle": 20.38 },
					{ "time": 2.3666, "angle": 16.13 },
					{ "time": 2.5, "angle": 13.84 },
					{ "time": 2.6666, "angle": -14.21 }
				],
				"translate": [
					{ "time": 2, "x": 3.75, "y": 1.36 }
				]
			},
			"tailbone1": {
				"rotate": [
					{ "time": 0, "angle": 0 },
					{ "time": 0.0666, "angle": 6.48 },
					{ "time": 0.4, "angle": -16.01, "curve": "stepped" },
					{ "time": 0.6666, "angle": -16.01 },
					{ "time": 0.8, "angle": 13.3 },
					{ "time": 1, "angle": -16.01 },
					{ "time": 1.5333, "angle": 28.45, "curve": "stepped" },
					{ "time": 2.1666, "angle": 28.45 },
					{ "time": 2.5, "angle": -8 }
				]
			},
			"tailbone2": {
				"rotate": [
					{ "time": 0, "angle": -13.39 },
					{ "time": 0.0666, "angle": -12.07 },
					{ "time": 0.4, "angle": -17.3, "curve": "stepped" },
					{ "time": 2.1666, "angle": -17.3 },
					{ "time": 2.5, "angle": -34.29 },
					{ "time": 2.6666, "angle": -13.39 }
				]
			},
			"right-arm": {
				"rotate": [
					{ "time": 0, "angle": 0 },
					{ "time": 0.0666, "angle": 34.45 },
					{ "time": 0.2, "angle": 71.38 },
					{ "time": 0.4, "angle": -65.81 },
					{ "time": 0.7, "angle": -10.85 },
					{ "time": 0.9333, "angle": -6.52 },
					{ "time": 1, "angle": 17.22, "curve": "stepped" },
					{ "time": 1.4, "angle": 17.22 }
				],
				"translate": [
					{ "time": 0, "x": 6.14, "y": -15.07 },
					{ "time": 0.4, "x": 0, "y": 0 },
					{ "time": 0.6666, "x": -0.99, "y": -5.91 },
					{ "time": 0.7, "x": 0.57, "y": 8.98 },
					{ "time": 1, "x": -0.38, "y": -5.98 }
				],
				"scale": [
					{ "time": 0, "x": 1, "y": 1 }
				]
			},
			"right-forearm": {
				"rotate": [
					{ "time": 0, "angle": 0 },
					{ "time": 0.0666, "angle": -43.38 },
					{ "time": 0.4, "angle": 62.26 },
					{ "time": 0.7, "angle": -29.86 },
					{ "time": 0.9333, "angle": 36.52, "curve": "stepped" },
					{ "time": 1.3333, "angle": 36.52 },
					{ "time": 1.5, "angle": -18.45 },
					{ "time": 2, "angle": 55.45 }
				],
				"translate": [
					{ "time": 0, "x": 0, "y": 0 }
				],
				"scale": [
					{ "time": 0, "x": 1, "y": 1 }
				]
			},
			"left-forearm": {
				"rotate": [
					{ "time": 0, "angle": 0 },
					{ "time": 0.4, "angle": -46.06 },
					{ "time": 0.7, "angle": -34.44 },
					{ "time": 0.9333, "angle": 48.21, "curve": "stepped" },
					{ "time": 1.3333, "angle": 48.21 },
					{ "time": 1.5, "angle": -6.04 },
					{ "time": 1.8333, "angle": 39.18 },
					{ "time": 2, "angle": -29.23 }
				],
				"translate": [
					{ "time": 0, "x": 0, "y": 0 }
				]
			},
			"right-claws": {
				"rotate": [
					{ "time": 0, "angle": 0 },
					{ "time": 0.0666, "angle": 4.7 },
					{ "time": 0.4, "angle": -85.84 },
					{ "time": 0.7, "angle": 0.95 },
					{ "time": 0.9333, "angle": -52.46 },
					{ "time": 1.4666, "angle": -4.26 },
					{ "time": 2, "angle": -57.37 }
				],
				"translate": [
					{ "time": 0, "x": 0, "y": 0 }
				]
			},
			"left-arm": {
				"rotate": [
					{ "time": 0, "angle": 0 },
					{ "time": 0.0666, "angle": 50.52 },
					{ "time": 0.4, "angle": 21.17 },
					{ "time": 0.7, "angle": -7.34 },
					{ "time": 0.9333, "angle": 5.89, "curve": "stepped" },
					{ "time": 1.3333, "angle": 5.89 },
					{ "time": 1.5, "angle": 38.16 },
					{ "time": 2, "angle": 47.77 }
				],
				"translate": [
					{ "time": 0, "x": 0, "y": 0 },
					{ "time": 0.9333, "x": -5.5, "y": -5.84 },
					{ "time": 1.3333, "x": -8.97, "y": -25.68 }
				]
			},
			"skull": {
				"rotate": [
					{ "time": 0, "angle": 332.27 },
					{ "time": 0.0666, "angle": -1.34 },
					{ "time": 0.2333, "angle": -0.34 },
					{ "time": 0.4, "angle": 305.41 },
					{ "time": 0.7, "angle": -2.39 },
					{ "time": 1, "angle": 341.7 },
					{ "time": 1.3333, "angle": 298.28 },
					{ "time": 1.5333, "angle": 38.22 },
					{ "time": 1.6, "angle": 45.03 },
					{ "time": 1.7333, "angle": 38.04 },
					{ "time": 1.8666, "angle": 40.04 },
					{ "time": 2.1666, "angle": 15.63 },
					{ "time": 2.2333, "angle": 344.85 },
					{ "time": 2.3333, "angle": 347.12 },
					{ "time": 2.6666, "angle": 336.32 }
				],
				"translate": [
					{ "time": 0, "x": 0, "y": 0 },
					{ "time": 0.0666, "x": -7.02, "y": 8.8 },
					{ "time": 0.4, "x": -28.39, "y": 21.59 },
					{ "time": 0.6666, "x": -10.67, "y": 20.45 },
					{ "time": 0.7, "x": -7.6, "y": 33.56 },
					{ "time": 1, "x": -9.19, "y": 8.95 },
					{ "time": 1.5333, "x": 10.29, "y": 5.46 },
					{ "time": 2.3333, "x": -11.23, "y": 10.1 }
				]
			},
			"jaw": {
				"rotate": [
					{ "time": 0, "angle": 44.48 },
					{ "time": 0.0666, "angle": 27.27 },
					{ "time": 0.2, "angle": 17.77 },
					{ "time": 0.4, "angle": 44.18 },
					{ "time": 0.7, "angle": 29.54 },
					{ "time": 1.1, "angle": 20.98 },
					{ "time": 1.3333, "angle": 46.26 },
					{ "time": 1.5333, "angle": -40.23 },
					{ "time": 1.6, "angle": -20.7 },
					{ "time": 1.7333, "angle": -17.73 },
					{ "time": 1.8666, "angle": -32.43 },
					{ "time": 2.1666, "angle": 34.55 },
					{ "time": 2.6666, "angle": 22.26 }
				],
				"translate": [
					{ "time": 1.1, "x": -8.52, "y": 11.86 },
					{ "time": 1.3333, "x": 0, "y": 0 },
					{ "time": 1.5333, "x": -3.56, "y": 27.07 },
					{ "time": 2.1666, "x": -8.52, "y": 11.86 }
				]
			}
		}
	},
	"run": {
		"bones": {
			"jaw": {
				"rotate": [
					{ "time": 0, "angle": 27.06, "curve": "stepped" },
					{ "time": 0.2716, "angle": 27.06 },
					{ "time": 0.3395, "angle": 36.86 },
					{ "time": 0.4415, "angle": 40.58 },
					{ "time": 0.8148, "angle": 27.06 },
					{ "time": 0.8827, "angle": 36.86 },
					{ "time": 0.9847, "angle": 40.58 },
					{ "time": 1.0864, "angle": 27.27 }
				],
				"translate": [
					{ "time": 0.2716, "x": 0, "y": 0 },
					{ "time": 0.3395, "x": 0.79, "y": -0.88 },
					{ "time": 0.4415, "x": 0, "y": 0, "curve": "stepped" },
					{ "time": 0.8148, "x": 0, "y": 0 },
					{ "time": 0.8827, "x": 0.79, "y": -0.88 },
					{ "time": 0.9847, "x": 0, "y": 0 }
				]
			},
			"right-leg": {
				"rotate": [
					{ "time": 0, "angle": -65.3 },
					{ "time": 0.2716, "angle": -47.94 },
					{ "time": 0.5432, "angle": 63.57 },
					{ "time": 0.8148, "angle": 29.44 },
					{ "time": 1.0864, "angle": -63.71 }
				],
				"translate": [
					{ "time": 0, "x": 9.48, "y": -3.51 },
					{ "time": 0.2716, "x": -14.28, "y": -9.42 },
					{ "time": 0.5432, "x": -12.8, "y": 26.33 },
					{ "time": 0.8148, "x": -11.94, "y": 26.01 },
					{ "time": 1.0864, "x": 9.48, "y": -3.51 }
				]
			},
			"right-foot": {
				"rotate": [
					{ "time": 0, "angle": -81.4 },
					{ "time": 0.2716, "angle": -62.65 },
					{ "time": 0.4074, "angle": -100.9 },
					{ "time": 0.5432, "angle": -18.75 },
					{ "time": 0.8148, "angle": -64.69 },
					{ "time": 0.8827, "angle": -11.8 },
					{ "time": 0.9506, "angle": -20.28 },
					{ "time": 1.0049, "angle": -74.27 },
					{ "time": 1.0864, "angle": -81.4 }
				]
			},
			"right-tibia": {
				"rotate": [
					{ "time": 0, "angle": 13.89 },
					{ "time": 0.2716, "angle": -42.61 },
					{ "time": 0.5432, "angle": -65.67 },
					{ "time": 0.8148, "angle": 34.22 },
					{ "time": 0.8827, "angle": -6.75 },
					{ "time": 0.9506, "angle": -6.46 },
					{ "time": 1.0864, "angle": 10.74 }
				]
			},
			"left-leg": {
				"rotate": [
					{ "time": 0, "angle": 70.36 },
					{ "time": 0.2716, "angle": 33.15 },
					{ "time": 0.5432, "angle": -67.88 },
					{ "time": 0.8148, "angle": -50.82 },
					{ "time": 1.0864, "angle": 67.66 }
				],
				"translate": [
					{ "time": 0, "x": -6.42, "y": -9.39 },
					{ "time": 0.2716, "x": -10.35, "y": 3.83 },
					{ "time": 0.5432, "x": 60.06, "y": -23.24 },
					{ "time": 0.8148, "x": 26.42, "y": -10.77 },
					{ "time": 1.0864, "x": -6.42, "y": -9.39 }
				]
			},
			"left-tibia": {
				"rotate": [
					{ "time": 0, "angle": -84.98 },
					{ "time": 0.2716, "angle": 23.77 },
					{ "time": 0.5432, "angle": 40.02 },
					{ "time": 0.8148, "angle": -9.94 },
					{ "time": 1.0864, "angle": -75.76 }
				]
			},
			"left-foot": {
				"rotate": [
					{ "time": 0, "angle": -28.26 },
					{ "time": 0.2716, "angle": -79.32 },
					{ "time": 0.3395, "angle": -57.13 },
					{ "time": 0.4074, "angle": -59.16 },
					{ "time": 0.4753, "angle": -102.54 },
					{ "time": 0.5432, "angle": -111.64 },
					{ "time": 0.8148, "angle": -74.41 },
					{ "time": 0.9506, "angle": -101.7 },
					{ "time": 1.0864, "angle": -32.91 }
				]
			},
			"backbone": {
				"translate": [
					{ "time": 0, "x": 0, "y": 0 },
					{ "time": 0.2716, "x": 0, "y": -20.23 },
					{ "time": 0.5432, "x": 0, "y": 0 },
					{ "time": 0.8148, "x": 0, "y": -21.15 },
					{ "time": 1.0864, "x": 0, "y": 0 }
				]
			},
			"skull": {
				"rotate": [
					{ "time": 0, "angle": 329.72 },
					{ "time": 0.2716, "angle": 322.55 },
					{ "time": 0.4753, "angle": 338.71 },
					{ "time": 0.6111, "angle": 329.76 },
					{ "time": 0.8148, "angle": 327.87 },
					{ "time": 1.0185, "angle": 338.71 },
					{ "time": 1.0864, "angle": 329.51 }
				],
				"translate": [
					{ "time": 0, "x": -12.92, "y": 11.05 },
					{ "time": 0.2716, "x": -11.61, "y": 14.57 },
					{ "time": 0.4753, "x": -12.92, "y": 11.05, "curve": "stepped" },
					{ "time": 0.6111, "x": -12.92, "y": 11.05 },
					{ "time": 0.8148, "x": -9.79, "y": 19.49 },
					{ "time": 1.0185, "x": -12.92, "y": 11.05, "curve": "stepped" },
					{ "time": 1.0864, "x": -12.92, "y": 11.05 }
				]
			},
			"tailbone2": {
				"rotate": [
					{ "time": 0, "angle": -30.56 },
					{ "time": 0.2716, "angle": -5.64 },
					{ "time": 0.3666, "angle": -33.75 },
					{ "time": 0.5432, "angle": -9.69 },
					{ "time": 0.8148, "angle": 0 },
					{ "time": 0.9098, "angle": -33.75 },
					{ "time": 1.0864, "angle": -31.9 }
				]
			},
			"tailbone1": {
				"rotate": [
					{ "time": 0, "angle": 11.55 },
					{ "time": 0.2716, "angle": 360 },
					{ "time": 0.4074, "angle": 17.93 },
					{ "time": 0.8148, "angle": 360 },
					{ "time": 0.9506, "angle": 17.93 },
					{ "time": 1.0864, "angle": 12.75 }
				]
			},
			"right-arm": {
				"rotate": [
					{ "time": 0, "angle": 40.69 },
					{ "time": 0.2716, "angle": 39.85 },
					{ "time": 0.5432, "angle": -10.06 },
					{ "time": 0.8148, "angle": -44.05 },
					{ "time": 1.0864, "angle": 39.01 }
				],
				"translate": [
					{ "time": 0, "x": 4.72, "y": -1.75 },
					{ "time": 0.2716, "x": 0.58, "y": 1.57 },
					{ "time": 0.5432, "x": 2.48, "y": -5.48 },
					{ "time": 0.8148, "x": 10.35, "y": -8.31 },
					{ "time": 1.0864, "x": 4.39, "y": -1.94 }
				]
			},
			"right-forearm": {
				"rotate": [
					{ "time": 0, "angle": 46.7 },
					{ "time": 0.2716, "angle": 59.87 },
					{ "time": 0.4074, "angle": -10.57 },
					{ "time": 0.5432, "angle": 26.16 },
					{ "time": 0.679, "angle": 58.39 },
					{ "time": 1.0864, "angle": 46.7 }
				]
			},
			"right-claws": {
				"rotate": [
					{ "time": 0, "angle": -77.74 },
					{ "time": 0.2716, "angle": -8.9 },
					{ "time": 0.5432, "angle": -10.59, "curve": "stepped" },
					{ "time": 0.8148, "angle": -10.59 },
					{ "time": 1.0864, "angle": -71.04 }
				],
				"translate": [
					{ "time": 0, "x": 0, "y": 0 }
				]
			},
			"left-arm": {
				"rotate": [
					{ "time": 0, "angle": -12.6 },
					{ "time": 0.2716, "angle": -17.8 },
					{ "time": 0.5432, "angle": 35.64 },
					{ "time": 0.8148, "angle": 5.63 },
					{ "time": 1.0864, "angle": -14.09 }
				],
				"translate": [
					{ "time": 0, "x": 0, "y": 0, "curve": "stepped" },
					{ "time": 0.2716, "x": 0, "y": 0 },
					{ "time": 0.5432, "x": -2.82, "y": -7.61 },
					{ "time": 0.8148, "x": -0.8, "y": -2.17 },
					{ "time": 1.0864, "x": -0.74, "y": -0.34 }
				]
			},
			"left-forearm": {
				"rotate": [
					{ "time": 0, "angle": -31.8 },
					{ "time": 0.2716, "angle": -27.88 },
					{ "time": 0.3259, "angle": -18.65 },
					{ "time": 0.5432, "angle": 48.07 },
					{ "time": 0.8148, "angle": -9.78 },
					{ "time": 1.0864, "angle": -33.39 }
				]
			}
		}
	}
}
}